{
  "development": {
    "username": "snine-paper",
    "password": "@Sunny521",
    "database": "snine-paper",
    "host": "42.192.77.35",
    "dialect": "mysql"
  },
  "test": {
    "username": "snine-paper",
    "password": "@Sunny521",
    "database": "snine-paper",
    "host": "42.192.77.35",
    "dialect": "mysql"
  },
  "production": {
    "username": "snine-paper",
    "password": "@Sunny521",
    "database": "snine-paper",
    "host": "42.192.77.35",
    "dialect": "mysql"
  }
}
